{
  "type": "File",
  "start": 0,
  "end": 379,
  "loc": {
    "start": {
      "line": 1,
      "column": 0
    },
    "end": {
      "line": 10,
      "column": 0
    }
  },
  "program": {
    "type": "Program",
    "start": 0,
    "end": 379,
    "loc": {
      "start": {
        "line": 1,
        "column": 0
      },
      "end": {
        "line": 10,
        "column": 0
      }
    },
    "sourceType": "module",
    "body": [
      {
        "type": "ExpressionStatement",
        "start": 2,
        "end": 377,
        "loc": {
          "start": {
            "line": 2,
            "column": 0
          },
          "end": {
            "line": 9,
            "column": 3
          }
        },
        "expression": {
          "type": "CallExpression",
          "start": 2,
          "end": 376,
          "loc": {
            "start": {
              "line": 2,
              "column": 0
            },
            "end": {
              "line": 9,
              "column": 2
            }
          },
          "callee": {
            "type": "MemberExpression",
            "start": 2,
            "end": 39,
            "loc": {
              "start": {
                "line": 2,
                "column": 0
              },
              "end": {
                "line": 2,
                "column": 37
              }
            },
            "object": {
              "type": "CallExpression",
              "start": 2,
              "end": 28,
              "loc": {
                "start": {
                  "line": 2,
                  "column": 0
                },
                "end": {
                  "line": 2,
                  "column": 26
                }
              },
              "callee": {
                "type": "MemberExpression",
                "start": 2,
                "end": 16,
                "loc": {
                  "start": {
                    "line": 2,
                    "column": 0
                  },
                  "end": {
                    "line": 2,
                    "column": 14
                  }
                },
                "object": {
                  "type": "Identifier",
                  "start": 2,
                  "end": 9,
                  "loc": {
                    "start": {
                      "line": 2,
                      "column": 0
                    },
                    "end": {
                      "line": 2,
                      "column": 7
                    },
                    "identifierName": "angular"
                  },
                  "name": "angular"
                },
                "property": {
                  "type": "Identifier",
                  "start": 10,
                  "end": 16,
                  "loc": {
                    "start": {
                      "line": 2,
                      "column": 8
                    },
                    "end": {
                      "line": 2,
                      "column": 14
                    },
                    "identifierName": "module"
                  },
                  "name": "module"
                },
                "computed": false
              },
              "arguments": [
                {
                  "type": "StringLiteral",
                  "start": 17,
                  "end": 27,
                  "loc": {
                    "start": {
                      "line": 2,
                      "column": 15
                    },
                    "end": {
                      "line": 2,
                      "column": 25
                    }
                  },
                  "extra": {
                    "rawValue": "workshop",
                    "raw": "'workshop'"
                  },
                  "value": "workshop"
                }
              ]
            },
            "property": {
              "type": "Identifier",
              "start": 29,
              "end": 39,
              "loc": {
                "start": {
                  "line": 2,
                  "column": 27
                },
                "end": {
                  "line": 2,
                  "column": 37
                },
                "identifierName": "controller"
              },
              "name": "controller"
            },
            "computed": false
          },
          "arguments": [
            {
              "type": "StringLiteral",
              "start": 40,
              "end": 62,
              "loc": {
                "start": {
                  "line": 2,
                  "column": 38
                },
                "end": {
                  "line": 2,
                  "column": 60
                }
              },
              "extra": {
                "rawValue": "BedrijfAddController",
                "raw": "'BedrijfAddController'"
              },
              "value": "BedrijfAddController"
            },
            {
              "type": "FunctionExpression",
              "start": 64,
              "end": 375,
              "loc": {
                "start": {
                  "line": 2,
                  "column": 62
                },
                "end": {
                  "line": 9,
                  "column": 1
                }
              },
              "id": null,
              "generator": false,
              "expression": false,
              "async": false,
              "params": [
                {
                  "type": "Identifier",
                  "start": 73,
                  "end": 79,
                  "loc": {
                    "start": {
                      "line": 2,
                      "column": 71
                    },
                    "end": {
                      "line": 2,
                      "column": 77
                    },
                    "identifierName": "$scope"
                  },
                  "name": "$scope"
                },
                {
                  "type": "Identifier",
                  "start": 81,
                  "end": 95,
                  "loc": {
                    "start": {
                      "line": 2,
                      "column": 79
                    },
                    "end": {
                      "line": 2,
                      "column": 93
                    },
                    "identifierName": "bedrijfService"
                  },
                  "name": "bedrijfService"
                }
              ],
              "body": {
                "type": "BlockStatement",
                "start": 98,
                "end": 375,
                "loc": {
                  "start": {
                    "line": 3,
                    "column": 0
                  },
                  "end": {
                    "line": 9,
                    "column": 1
                  }
                },
                "body": [
                  {
                    "type": "ExpressionStatement",
                    "start": 105,
                    "end": 372,
                    "loc": {
                      "start": {
                        "line": 4,
                        "column": 4
                      },
                      "end": {
                        "line": 8,
                        "column": 6
                      }
                    },
                    "expression": {
                      "type": "AssignmentExpression",
                      "start": 105,
                      "end": 371,
                      "loc": {
                        "start": {
                          "line": 4,
                          "column": 4
                        },
                        "end": {
                          "line": 8,
                          "column": 5
                        }
                      },
                      "operator": "=",
                      "left": {
                        "type": "MemberExpression",
                        "start": 105,
                        "end": 125,
                        "loc": {
                          "start": {
                            "line": 4,
                            "column": 4
                          },
                          "end": {
                            "line": 4,
                            "column": 24
                          }
                        },
                        "object": {
                          "type": "Identifier",
                          "start": 105,
                          "end": 111,
                          "loc": {
                            "start": {
                              "line": 4,
                              "column": 4
                            },
                            "end": {
                              "line": 4,
                              "column": 10
                            },
                            "identifierName": "$scope"
                          },
                          "name": "$scope"
                        },
                        "property": {
                          "type": "Identifier",
                          "start": 112,
                          "end": 125,
                          "loc": {
                            "start": {
                              "line": 4,
                              "column": 11
                            },
                            "end": {
                              "line": 4,
                              "column": 24
                            },
                            "identifierName": "createCompany"
                          },
                          "name": "createCompany"
                        },
                        "computed": false
                      },
                      "right": {
                        "type": "FunctionExpression",
                        "start": 128,
                        "end": 371,
                        "loc": {
                          "start": {
                            "line": 4,
                            "column": 27
                          },
                          "end": {
                            "line": 8,
                            "column": 5
                          }
                        },
                        "id": null,
                        "generator": false,
                        "expression": false,
                        "async": false,
                        "params": [],
                        "body": {
                          "type": "BlockStatement",
                          "start": 138,
                          "end": 371,
                          "loc": {
                            "start": {
                              "line": 4,
                              "column": 37
                            },
                            "end": {
                              "line": 8,
                              "column": 5
                            }
                          },
                          "body": [
                            {
                              "type": "ExpressionStatement",
                              "start": 155,
                              "end": 356,
                              "loc": {
                                "start": {
                                  "line": 5,
                                  "column": 8
                                },
                                "end": {
                                  "line": 7,
                                  "column": 10
                                }
                              },
                              "expression": {
                                "type": "CallExpression",
                                "start": 155,
                                "end": 355,
                                "loc": {
                                  "start": {
                                    "line": 5,
                                    "column": 8
                                  },
                                  "end": {
                                    "line": 7,
                                    "column": 9
                                  }
                                },
                                "callee": {
                                  "type": "MemberExpression",
                                  "start": 155,
                                  "end": 176,
                                  "loc": {
                                    "start": {
                                      "line": 5,
                                      "column": 8
                                    },
                                    "end": {
                                      "line": 5,
                                      "column": 29
                                    }
                                  },
                                  "object": {
                                    "type": "Identifier",
                                    "start": 155,
                                    "end": 169,
                                    "loc": {
                                      "start": {
                                        "line": 5,
                                        "column": 8
                                      },
                                      "end": {
                                        "line": 5,
                                        "column": 22
                                      },
                                      "identifierName": "bedrijfService"
                                    },
                                    "name": "bedrijfService"
                                  },
                                  "property": {
                                    "type": "Identifier",
                                    "start": 170,
                                    "end": 176,
                                    "loc": {
                                      "start": {
                                        "line": 5,
                                        "column": 23
                                      },
                                      "end": {
                                        "line": 5,
                                        "column": 29
                                      },
                                      "identifierName": "create"
                                    },
                                    "name": "create"
                                  },
                                  "computed": false
                                },
                                "arguments": [
                                  {
                                    "type": "MemberExpression",
                                    "start": 191,
                                    "end": 212,
                                    "loc": {
                                      "start": {
                                        "line": 6,
                                        "column": 12
                                      },
                                      "end": {
                                        "line": 6,
                                        "column": 33
                                      }
                                    },
                                    "object": {
                                      "type": "Identifier",
                                      "start": 191,
                                      "end": 197,
                                      "loc": {
                                        "start": {
                                          "line": 6,
                                          "column": 12
                                        },
                                        "end": {
                                          "line": 6,
                                          "column": 18
                                        },
                                        "identifierName": "$scope"
                                      },
                                      "name": "$scope"
                                    },
                                    "property": {
                                      "type": "Identifier",
                                      "start": 198,
                                      "end": 212,
                                      "loc": {
                                        "start": {
                                          "line": 6,
                                          "column": 19
                                        },
                                        "end": {
                                          "line": 6,
                                          "column": 33
                                        },
                                        "identifierName": "telefoonnummer"
                                      },
                                      "name": "telefoonnummer"
                                    },
                                    "computed": false
                                  },
                                  {
                                    "type": "MemberExpression",
                                    "start": 213,
                                    "end": 224,
                                    "loc": {
                                      "start": {
                                        "line": 6,
                                        "column": 34
                                      },
                                      "end": {
                                        "line": 6,
                                        "column": 45
                                      }
                                    },
                                    "object": {
                                      "type": "Identifier",
                                      "start": 213,
                                      "end": 219,
                                      "loc": {
                                        "start": {
                                          "line": 6,
                                          "column": 34
                                        },
                                        "end": {
                                          "line": 6,
                                          "column": 40
                                        },
                                        "identifierName": "$scope"
                                      },
                                      "name": "$scope"
                                    },
                                    "property": {
                                      "type": "Identifier",
                                      "start": 220,
                                      "end": 224,
                                      "loc": {
                                        "start": {
                                          "line": 6,
                                          "column": 41
                                        },
                                        "end": {
                                          "line": 6,
                                          "column": 45
                                        },
                                        "identifierName": "naam"
                                      },
                                      "name": "naam"
                                    },
                                    "computed": false
                                  },
                                  {
                                    "type": "MemberExpression",
                                    "start": 225,
                                    "end": 237,
                                    "loc": {
                                      "start": {
                                        "line": 6,
                                        "column": 46
                                      },
                                      "end": {
                                        "line": 6,
                                        "column": 58
                                      }
                                    },
                                    "object": {
                                      "type": "Identifier",
                                      "start": 225,
                                      "end": 231,
                                      "loc": {
                                        "start": {
                                          "line": 6,
                                          "column": 46
                                        },
                                        "end": {
                                          "line": 6,
                                          "column": 52
                                        },
                                        "identifierName": "$scope"
                                      },
                                      "name": "$scope"
                                    },
                                    "property": {
                                      "type": "Identifier",
                                      "start": 232,
                                      "end": 237,
                                      "loc": {
                                        "start": {
                                          "line": 6,
                                          "column": 53
                                        },
                                        "end": {
                                          "line": 6,
                                          "column": 58
                                        },
                                        "identifierName": "adres"
                                      },
                                      "name": "adres"
                                    },
                                    "computed": false
                                  },
                                  {
                                    "type": "MemberExpression",
                                    "start": 238,
                                    "end": 251,
                                    "loc": {
                                      "start": {
                                        "line": 6,
                                        "column": 59
                                      },
                                      "end": {
                                        "line": 6,
                                        "column": 72
                                      }
                                    },
                                    "object": {
                                      "type": "Identifier",
                                      "start": 238,
                                      "end": 244,
                                      "loc": {
                                        "start": {
                                          "line": 6,
                                          "column": 59
                                        },
                                        "end": {
                                          "line": 6,
                                          "column": 65
                                        },
                                        "identifierName": "$scope"
                                      },
                                      "name": "$scope"
                                    },
                                    "property": {
                                      "type": "Identifier",
                                      "start": 245,
                                      "end": 251,
                                      "loc": {
                                        "start": {
                                          "line": 6,
                                          "column": 66
                                        },
                                        "end": {
                                          "line": 6,
                                          "column": 72
                                        },
                                        "identifierName": "plaats"
                                      },
                                      "name": "plaats"
                                    },
                                    "computed": false
                                  },
                                  {
                                    "type": "MemberExpression",
                                    "start": 252,
                                    "end": 267,
                                    "loc": {
                                      "start": {
                                        "line": 6,
                                        "column": 73
                                      },
                                      "end": {
                                        "line": 6,
                                        "column": 88
                                      }
                                    },
                                    "object": {
                                      "type": "Identifier",
                                      "start": 252,
                                      "end": 258,
                                      "loc": {
                                        "start": {
                                          "line": 6,
                                          "column": 73
                                        },
                                        "end": {
                                          "line": 6,
                                          "column": 79
                                        },
                                        "identifierName": "$scope"
                                      },
                                      "name": "$scope"
                                    },
                                    "property": {
                                      "type": "Identifier",
                                      "start": 259,
                                      "end": 267,
                                      "loc": {
                                        "start": {
                                          "line": 6,
                                          "column": 80
                                        },
                                        "end": {
                                          "line": 6,
                                          "column": 88
                                        },
                                        "identifierName": "postcode"
                                      },
                                      "name": "postcode"
                                    },
                                    "computed": false
                                  },
                                  {
                                    "type": "MemberExpression",
                                    "start": 268,
                                    "end": 293,
                                    "loc": {
                                      "start": {
                                        "line": 6,
                                        "column": 89
                                      },
                                      "end": {
                                        "line": 6,
                                        "column": 114
                                      }
                                    },
                                    "object": {
                                      "type": "Identifier",
                                      "start": 268,
                                      "end": 274,
                                      "loc": {
                                        "start": {
                                          "line": 6,
                                          "column": 89
                                        },
                                        "end": {
                                          "line": 6,
                                          "column": 95
                                        },
                                        "identifierName": "$scope"
                                      },
                                      "name": "$scope"
                                    },
                                    "property": {
                                      "type": "Identifier",
                                      "start": 275,
                                      "end": 293,
                                      "loc": {
                                        "start": {
                                          "line": 6,
                                          "column": 96
                                        },
                                        "end": {
                                          "line": 6,
                                          "column": 114
                                        },
                                        "identifierName": "contactpersoonNaam"
                                      },
                                      "name": "contactpersoonNaam"
                                    },
                                    "computed": false
                                  },
                                  {
                                    "type": "MemberExpression",
                                    "start": 294,
                                    "end": 318,
                                    "loc": {
                                      "start": {
                                        "line": 6,
                                        "column": 115
                                      },
                                      "end": {
                                        "line": 6,
                                        "column": 139
                                      }
                                    },
                                    "object": {
                                      "type": "Identifier",
                                      "start": 294,
                                      "end": 300,
                                      "loc": {
                                        "start": {
                                          "line": 6,
                                          "column": 115
                                        },
                                        "end": {
                                          "line": 6,
                                          "column": 121
                                        },
                                        "identifierName": "$scope"
                                      },
                                      "name": "$scope"
                                    },
                                    "property": {
                                      "type": "Identifier",
                                      "start": 301,
                                      "end": 318,
                                      "loc": {
                                        "start": {
                                          "line": 6,
                                          "column": 122
                                        },
                                        "end": {
                                          "line": 6,
                                          "column": 139
                                        },
                                        "identifierName": "contactpersoonTel"
                                      },
                                      "name": "contactpersoonTel"
                                    },
                                    "computed": false
                                  },
                                  {
                                    "type": "MemberExpression",
                                    "start": 319,
                                    "end": 344,
                                    "loc": {
                                      "start": {
                                        "line": 6,
                                        "column": 140
                                      },
                                      "end": {
                                        "line": 6,
                                        "column": 165
                                      }
                                    },
                                    "object": {
                                      "type": "Identifier",
                                      "start": 319,
                                      "end": 325,
                                      "loc": {
                                        "start": {
                                          "line": 6,
                                          "column": 140
                                        },
                                        "end": {
                                          "line": 6,
                                          "column": 146
                                        },
                                        "identifierName": "$scope"
                                      },
                                      "name": "$scope"
                                    },
                                    "property": {
                                      "type": "Identifier",
                                      "start": 326,
                                      "end": 344,
                                      "loc": {
                                        "start": {
                                          "line": 6,
                                          "column": 147
                                        },
                                        "end": {
                                          "line": 6,
                                          "column": 165
                                        },
                                        "identifierName": "contactpersoonMail"
                                      },
                                      "name": "contactpersoonMail"
                                    },
                                    "computed": false
                                  }
                                ]
                              }
                            }
                          ],
                          "directives": []
                        }
                      }
                    }
                  }
                ],
                "directives": []
              }
            }
          ]
        }
      }
    ],
    "directives": []
  },
  "comments": [],
  "tokens": [
    {
      "type": {
        "label": "name",
        "beforeExpr": false,
        "startsExpr": true,
        "rightAssociative": false,
        "isLoop": false,
        "isAssign": false,
        "prefix": false,
        "postfix": false,
        "binop": null
      },
      "value": "angular",
      "start": 2,
      "end": 9,
      "loc": {
        "start": {
          "line": 2,
          "column": 0
        },
        "end": {
          "line": 2,
          "column": 7
        }
      }
    },
    {
      "type": {
        "label": ".",
        "beforeExpr": false,
        "startsExpr": false,
        "rightAssociative": false,
        "isLoop": false,
        "isAssign": false,
        "prefix": false,
        "postfix": false,
        "binop": null,
        "updateContext": null
      },
      "start": 9,
      "end": 10,
      "loc": {
        "start": {
          "line": 2,
          "column": 7
        },
        "end": {
          "line": 2,
          "column": 8
        }
      }
    },
    {
      "type": {
        "label": "name",
        "beforeExpr": false,
        "startsExpr": true,
        "rightAssociative": false,
        "isLoop": false,
        "isAssign": false,
        "prefix": false,
        "postfix": false,
        "binop": null
      },
      "value": "module",
      "start": 10,
      "end": 16,
      "loc": {
        "start": {
          "line": 2,
          "column": 8
        },
        "end": {
          "line": 2,
          "column": 14
        }
      }
    },
    {
      "type": {
        "label": "(",
        "beforeExpr": true,
        "startsExpr": true,
        "rightAssociative": false,
        "isLoop": false,
        "isAssign": false,
        "prefix": false,
        "postfix": false,
        "binop": null
      },
      "start": 16,
      "end": 17,
      "loc": {
        "start": {
          "line": 2,
          "column": 14
        },
        "end": {
          "line": 2,
          "column": 15
        }
      }
    },
    {
      "type": {
        "label": "string",
        "beforeExpr": false,
        "startsExpr": true,
        "rightAssociative": false,
        "isLoop": false,
        "isAssign": false,
        "prefix": false,
        "postfix": false,
        "binop": null,
        "updateContext": null
      },
      "value": "workshop",
      "start": 17,
      "end": 27,
      "loc": {
        "start": {
          "line": 2,
          "column": 15
        },
        "end": {
          "line": 2,
          "column": 25
        }
      }
    },
    {
      "type": {
        "label": ")",
        "beforeExpr": false,
        "startsExpr": false,
        "rightAssociative": false,
        "isLoop": false,
        "isAssign": false,
        "prefix": false,
        "postfix": false,
        "binop": null
      },
      "start": 27,
      "end": 28,
      "loc": {
        "start": {
          "line": 2,
          "column": 25
        },
        "end": {
          "line": 2,
          "column": 26
        }
      }
    },
    {
      "type": {
        "label": ".",
        "beforeExpr": false,
        "startsExpr": false,
        "rightAssociative": false,
        "isLoop": false,
        "isAssign": false,
        "prefix": false,
        "postfix": false,
        "binop": null,
        "updateContext": null
      },
      "start": 28,
      "end": 29,
      "loc": {
        "start": {
          "line": 2,
          "column": 26
        },
        "end": {
          "line": 2,
          "column": 27
        }
      }
    },
    {
      "type": {
        "label": "name",
        "beforeExpr": false,
        "startsExpr": true,
        "rightAssociative": false,
        "isLoop": false,
        "isAssign": false,
        "prefix": false,
        "postfix": false,
        "binop": null
      },
      "value": "controller",
      "start": 29,
      "end": 39,
      "loc": {
        "start": {
          "line": 2,
          "column": 27
        },
        "end": {
          "line": 2,
          "column": 37
        }
      }
    },
    {
      "type": {
        "label": "(",
        "beforeExpr": true,
        "startsExpr": true,
        "rightAssociative": false,
        "isLoop": false,
        "isAssign": false,
        "prefix": false,
        "postfix": false,
        "binop": null
      },
      "start": 39,
      "end": 40,
      "loc": {
        "start": {
          "line": 2,
          "column": 37
        },
        "end": {
          "line": 2,
          "column": 38
        }
      }
    },
    {
      "type": {
        "label": "string",
        "beforeExpr": false,
        "startsExpr": true,
        "rightAssociative": false,
        "isLoop": false,
        "isAssign": false,
        "prefix": false,
        "postfix": false,
        "binop": null,
        "updateContext": null
      },
      "value": "BedrijfAddController",
      "start": 40,
      "end": 62,
      "loc": {
        "start": {
          "line": 2,
          "column": 38
        },
        "end": {
          "line": 2,
          "column": 60
        }
      }
    },
    {
      "type": {
        "label": ",",
        "beforeExpr": true,
        "startsExpr": false,
        "rightAssociative": false,
        "isLoop": false,
        "isAssign": false,
        "prefix": false,
        "postfix": false,
        "binop": null,
        "updateContext": null
      },
      "start": 62,
      "end": 63,
      "loc": {
        "start": {
          "line": 2,
          "column": 60
        },
        "end": {
          "line": 2,
          "column": 61
        }
      }
    },
    {
      "type": {
        "label": "function",
        "keyword": "function",
        "beforeExpr": false,
        "startsExpr": true,
        "rightAssociative": false,
        "isLoop": false,
        "isAssign": false,
        "prefix": false,
        "postfix": false,
        "binop": null
      },
      "value": "function",
      "start": 64,
      "end": 72,
      "loc": {
        "start": {
          "line": 2,
          "column": 62
        },
        "end": {
          "line": 2,
          "column": 70
        }
      }
    },
    {
      "type": {
        "label": "(",
        "beforeExpr": true,
        "startsExpr": true,
        "rightAssociative": false,
        "isLoop": false,
        "isAssign": false,
        "prefix": false,
        "postfix": false,
        "binop": null
      },
      "start": 72,
      "end": 73,
      "loc": {
        "start": {
          "line": 2,
          "column": 70
        },
        "end": {
          "line": 2,
          "column": 71
        }
      }
    },
    {
      "type": {
        "label": "name",
        "beforeExpr": false,
        "startsExpr": true,
        "rightAssociative": false,
        "isLoop": false,
        "isAssign": false,
        "prefix": false,
        "postfix": false,
        "binop": null
      },
      "value": "$scope",
      "start": 73,
      "end": 79,
      "loc": {
        "start": {
          "line": 2,
          "column": 71
        },
        "end": {
          "line": 2,
          "column": 77
        }
      }
    },
    {
      "type": {
        "label": ",",
        "beforeExpr": true,
        "startsExpr": false,
        "rightAssociative": false,
        "isLoop": false,
        "isAssign": false,
        "prefix": false,
        "postfix": false,
        "binop": null,
        "updateContext": null
      },
      "start": 79,
      "end": 80,
      "loc": {
        "start": {
          "line": 2,
          "column": 77
        },
        "end": {
          "line": 2,
          "column": 78
        }
      }
    },
    {
      "type": {
        "label": "name",
        "beforeExpr": false,
        "startsExpr": true,
        "rightAssociative": false,
        "isLoop": false,
        "isAssign": false,
        "prefix": false,
        "postfix": false,
        "binop": null
      },
      "value": "bedrijfService",
      "start": 81,
      "end": 95,
      "loc": {
        "start": {
          "line": 2,
          "column": 79
        },
        "end": {
          "line": 2,
          "column": 93
        }
      }
    },
    {
      "type": {
        "label": ")",
        "beforeExpr": false,
        "startsExpr": false,
        "rightAssociative": false,
        "isLoop": false,
        "isAssign": false,
        "prefix": false,
        "postfix": false,
        "binop": null
      },
      "start": 95,
      "end": 96,
      "loc": {
        "start": {
          "line": 2,
          "column": 93
        },
        "end": {
          "line": 2,
          "column": 94
        }
      }
    },
    {
      "type": {
        "label": "{",
        "beforeExpr": true,
        "startsExpr": true,
        "rightAssociative": false,
        "isLoop": false,
        "isAssign": false,
        "prefix": false,
        "postfix": false,
        "binop": null
      },
      "start": 98,
      "end": 99,
      "loc": {
        "start": {
          "line": 3,
          "column": 0
        },
        "end": {
          "line": 3,
          "column": 1
        }
      }
    },
    {
      "type": {
        "label": "name",
        "beforeExpr": false,
        "startsExpr": true,
        "rightAssociative": false,
        "isLoop": false,
        "isAssign": false,
        "prefix": false,
        "postfix": false,
        "binop": null
      },
      "value": "$scope",
      "start": 105,
      "end": 111,
      "loc": {
        "start": {
          "line": 4,
          "column": 4
        },
        "end": {
          "line": 4,
          "column": 10
        }
      }
    },
    {
      "type": {
        "label": ".",
        "beforeExpr": false,
        "startsExpr": false,
        "rightAssociative": false,
        "isLoop": false,
        "isAssign": false,
        "prefix": false,
        "postfix": false,
        "binop": null,
        "updateContext": null
      },
      "start": 111,
      "end": 112,
      "loc": {
        "start": {
          "line": 4,
          "column": 10
        },
        "end": {
          "line": 4,
          "column": 11
        }
      }
    },
    {
      "type": {
        "label": "name",
        "beforeExpr": false,
        "startsExpr": true,
        "rightAssociative": false,
        "isLoop": false,
        "isAssign": false,
        "prefix": false,
        "postfix": false,
        "binop": null
      },
      "value": "createCompany",
      "start": 112,
      "end": 125,
      "loc": {
        "start": {
          "line": 4,
          "column": 11
        },
        "end": {
          "line": 4,
          "column": 24
        }
      }
    },
    {
      "type": {
        "label": "=",
        "beforeExpr": true,
        "startsExpr": false,
        "rightAssociative": false,
        "isLoop": false,
        "isAssign": true,
        "prefix": false,
        "postfix": false,
        "binop": null,
        "updateContext": null
      },
      "value": "=",
      "start": 126,
      "end": 127,
      "loc": {
        "start": {
          "line": 4,
          "column": 25
        },
        "end": {
          "line": 4,
          "column": 26
        }
      }
    },
    {
      "type": {
        "label": "function",
        "keyword": "function",
        "beforeExpr": false,
        "startsExpr": true,
        "rightAssociative": false,
        "isLoop": false,
        "isAssign": false,
        "prefix": false,
        "postfix": false,
        "binop": null
      },
      "value": "function",
      "start": 128,
      "end": 136,
      "loc": {
        "start": {
          "line": 4,
          "column": 27
        },
        "end": {
          "line": 4,
          "column": 35
        }
      }
    },
    {
      "type": {
        "label": "(",
        "beforeExpr": true,
        "startsExpr": true,
        "rightAssociative": false,
        "isLoop": false,
        "isAssign": false,
        "prefix": false,
        "postfix": false,
        "binop": null
      },
      "start": 136,
      "end": 137,
      "loc": {
        "start": {
          "line": 4,
          "column": 35
        },
        "end": {
          "line": 4,
          "column": 36
        }
      }
    },
    {
      "type": {
        "label": ")",
        "beforeExpr": false,
        "startsExpr": false,
        "rightAssociative": false,
        "isLoop": false,
        "isAssign": false,
        "prefix": false,
        "postfix": false,
        "binop": null
      },
      "start": 137,
      "end": 138,
      "loc": {
        "start": {
          "line": 4,
          "column": 36
        },
        "end": {
          "line": 4,
          "column": 37
        }
      }
    },
    {
      "type": {
        "label": "{",
        "beforeExpr": true,
        "startsExpr": true,
        "rightAssociative": false,
        "isLoop": false,
        "isAssign": false,
        "prefix": false,
        "postfix": false,
        "binop": null
      },
      "start": 138,
      "end": 139,
      "loc": {
        "start": {
          "line": 4,
          "column": 37
        },
        "end": {
          "line": 4,
          "column": 38
        }
      }
    },
    {
      "type": {
        "label": "name",
        "beforeExpr": false,
        "startsExpr": true,
        "rightAssociative": false,
        "isLoop": false,
        "isAssign": false,
        "prefix": false,
        "postfix": false,
        "binop": null
      },
      "value": "bedrijfService",
      "start": 155,
      "end": 169,
      "loc": {
        "start": {
          "line": 5,
          "column": 8
        },
        "end": {
          "line": 5,
          "column": 22
        }
      }
    },
    {
      "type": {
        "label": ".",
        "beforeExpr": false,
        "startsExpr": false,
        "rightAssociative": false,
        "isLoop": false,
        "isAssign": false,
        "prefix": false,
        "postfix": false,
        "binop": null,
        "updateContext": null
      },
      "start": 169,
      "end": 170,
      "loc": {
        "start": {
          "line": 5,
          "column": 22
        },
        "end": {
          "line": 5,
          "column": 23
        }
      }
    },
    {
      "type": {
        "label": "name",
        "beforeExpr": false,
        "startsExpr": true,
        "rightAssociative": false,
        "isLoop": false,
        "isAssign": false,
        "prefix": false,
        "postfix": false,
        "binop": null
      },
      "value": "create",
      "start": 170,
      "end": 176,
      "loc": {
        "start": {
          "line": 5,
          "column": 23
        },
        "end": {
          "line": 5,
          "column": 29
        }
      }
    },
    {
      "type": {
        "label": "(",
        "beforeExpr": true,
        "startsExpr": true,
        "rightAssociative": false,
        "isLoop": false,
        "isAssign": false,
        "prefix": false,
        "postfix": false,
        "binop": null
      },
      "start": 176,
      "end": 177,
      "loc": {
        "start": {
          "line": 5,
          "column": 29
        },
        "end": {
          "line": 5,
          "column": 30
        }
      }
    },
    {
      "type": {
        "label": "name",
        "beforeExpr": false,
        "startsExpr": true,
        "rightAssociative": false,
        "isLoop": false,
        "isAssign": false,
        "prefix": false,
        "postfix": false,
        "binop": null
      },
      "value": "$scope",
      "start": 191,
      "end": 197,
      "loc": {
        "start": {
          "line": 6,
          "column": 12
        },
        "end": {
          "line": 6,
          "column": 18
        }
      }
    },
    {
      "type": {
        "label": ".",
        "beforeExpr": false,
        "startsExpr": false,
        "rightAssociative": false,
        "isLoop": false,
        "isAssign": false,
        "prefix": false,
        "postfix": false,
        "binop": null,
        "updateContext": null
      },
      "start": 197,
      "end": 198,
      "loc": {
        "start": {
          "line": 6,
          "column": 18
        },
        "end": {
          "line": 6,
          "column": 19
        }
      }
    },
    {
      "type": {
        "label": "name",
        "beforeExpr": false,
        "startsExpr": true,
        "rightAssociative": false,
        "isLoop": false,
        "isAssign": false,
        "prefix": false,
        "postfix": false,
        "binop": null
      },
      "value": "telefoonnummer",
      "start": 198,
      "end": 212,
      "loc": {
        "start": {
          "line": 6,
          "column": 19
        },
        "end": {
          "line": 6,
          "column": 33
        }
      }
    },
    {
      "type": {
        "label": ",",
        "beforeExpr": true,
        "startsExpr": false,
        "rightAssociative": false,
        "isLoop": false,
        "isAssign": false,
        "prefix": false,
        "postfix": false,
        "binop": null,
        "updateContext": null
      },
      "start": 212,
      "end": 213,
      "loc": {
        "start": {
          "line": 6,
          "column": 33
        },
        "end": {
          "line": 6,
          "column": 34
        }
      }
    },
    {
      "type": {
        "label": "name",
        "beforeExpr": false,
        "startsExpr": true,
        "rightAssociative": false,
        "isLoop": false,
        "isAssign": false,
        "prefix": false,
        "postfix": false,
        "binop": null
      },
      "value": "$scope",
      "start": 213,
      "end": 219,
      "loc": {
        "start": {
          "line": 6,
          "column": 34
        },
        "end": {
          "line": 6,
          "column": 40
        }
      }
    },
    {
      "type": {
        "label": ".",
        "beforeExpr": false,
        "startsExpr": false,
        "rightAssociative": false,
        "isLoop": false,
        "isAssign": false,
        "prefix": false,
        "postfix": false,
        "binop": null,
        "updateContext": null
      },
      "start": 219,
      "end": 220,
      "loc": {
        "start": {
          "line": 6,
          "column": 40
        },
        "end": {
          "line": 6,
          "column": 41
        }
      }
    },
    {
      "type": {
        "label": "name",
        "beforeExpr": false,
        "startsExpr": true,
        "rightAssociative": false,
        "isLoop": false,
        "isAssign": false,
        "prefix": false,
        "postfix": false,
        "binop": null
      },
      "value": "naam",
      "start": 220,
      "end": 224,
      "loc": {
        "start": {
          "line": 6,
          "column": 41
        },
        "end": {
          "line": 6,
          "column": 45
        }
      }
    },
    {
      "type": {
        "label": ",",
        "beforeExpr": true,
        "startsExpr": false,
        "rightAssociative": false,
        "isLoop": false,
        "isAssign": false,
        "prefix": false,
        "postfix": false,
        "binop": null,
        "updateContext": null
      },
      "start": 224,
      "end": 225,
      "loc": {
        "start": {
          "line": 6,
          "column": 45
        },
        "end": {
          "line": 6,
          "column": 46
        }
      }
    },
    {
      "type": {
        "label": "name",
        "beforeExpr": false,
        "startsExpr": true,
        "rightAssociative": false,
        "isLoop": false,
        "isAssign": false,
        "prefix": false,
        "postfix": false,
        "binop": null
      },
      "value": "$scope",
      "start": 225,
      "end": 231,
      "loc": {
        "start": {
          "line": 6,
          "column": 46
        },
        "end": {
          "line": 6,
          "column": 52
        }
      }
    },
    {
      "type": {
        "label": ".",
        "beforeExpr": false,
        "startsExpr": false,
        "rightAssociative": false,
        "isLoop": false,
        "isAssign": false,
        "prefix": false,
        "postfix": false,
        "binop": null,
        "updateContext": null
      },
      "start": 231,
      "end": 232,
      "loc": {
        "start": {
          "line": 6,
          "column": 52
        },
        "end": {
          "line": 6,
          "column": 53
        }
      }
    },
    {
      "type": {
        "label": "name",
        "beforeExpr": false,
        "startsExpr": true,
        "rightAssociative": false,
        "isLoop": false,
        "isAssign": false,
        "prefix": false,
        "postfix": false,
        "binop": null
      },
      "value": "adres",
      "start": 232,
      "end": 237,
      "loc": {
        "start": {
          "line": 6,
          "column": 53
        },
        "end": {
          "line": 6,
          "column": 58
        }
      }
    },
    {
      "type": {
        "label": ",",
        "beforeExpr": true,
        "startsExpr": false,
        "rightAssociative": false,
        "isLoop": false,
        "isAssign": false,
        "prefix": false,
        "postfix": false,
        "binop": null,
        "updateContext": null
      },
      "start": 237,
      "end": 238,
      "loc": {
        "start": {
          "line": 6,
          "column": 58
        },
        "end": {
          "line": 6,
          "column": 59
        }
      }
    },
    {
      "type": {
        "label": "name",
        "beforeExpr": false,
        "startsExpr": true,
        "rightAssociative": false,
        "isLoop": false,
        "isAssign": false,
        "prefix": false,
        "postfix": false,
        "binop": null
      },
      "value": "$scope",
      "start": 238,
      "end": 244,
      "loc": {
        "start": {
          "line": 6,
          "column": 59
        },
        "end": {
          "line": 6,
          "column": 65
        }
      }
    },
    {
      "type": {
        "label": ".",
        "beforeExpr": false,
        "startsExpr": false,
        "rightAssociative": false,
        "isLoop": false,
        "isAssign": false,
        "prefix": false,
        "postfix": false,
        "binop": null,
        "updateContext": null
      },
      "start": 244,
      "end": 245,
      "loc": {
        "start": {
          "line": 6,
          "column": 65
        },
        "end": {
          "line": 6,
          "column": 66
        }
      }
    },
    {
      "type": {
        "label": "name",
        "beforeExpr": false,
        "startsExpr": true,
        "rightAssociative": false,
        "isLoop": false,
        "isAssign": false,
        "prefix": false,
        "postfix": false,
        "binop": null
      },
      "value": "plaats",
      "start": 245,
      "end": 251,
      "loc": {
        "start": {
          "line": 6,
          "column": 66
        },
        "end": {
          "line": 6,
          "column": 72
        }
      }
    },
    {
      "type": {
        "label": ",",
        "beforeExpr": true,
        "startsExpr": false,
        "rightAssociative": false,
        "isLoop": false,
        "isAssign": false,
        "prefix": false,
        "postfix": false,
        "binop": null,
        "updateContext": null
      },
      "start": 251,
      "end": 252,
      "loc": {
        "start": {
          "line": 6,
          "column": 72
        },
        "end": {
          "line": 6,
          "column": 73
        }
      }
    },
    {
      "type": {
        "label": "name",
        "beforeExpr": false,
        "startsExpr": true,
        "rightAssociative": false,
        "isLoop": false,
        "isAssign": false,
        "prefix": false,
        "postfix": false,
        "binop": null
      },
      "value": "$scope",
      "start": 252,
      "end": 258,
      "loc": {
        "start": {
          "line": 6,
          "column": 73
        },
        "end": {
          "line": 6,
          "column": 79
        }
      }
    },
    {
      "type": {
        "label": ".",
        "beforeExpr": false,
        "startsExpr": false,
        "rightAssociative": false,
        "isLoop": false,
        "isAssign": false,
        "prefix": false,
        "postfix": false,
        "binop": null,
        "updateContext": null
      },
      "start": 258,
      "end": 259,
      "loc": {
        "start": {
          "line": 6,
          "column": 79
        },
        "end": {
          "line": 6,
          "column": 80
        }
      }
    },
    {
      "type": {
        "label": "name",
        "beforeExpr": false,
        "startsExpr": true,
        "rightAssociative": false,
        "isLoop": false,
        "isAssign": false,
        "prefix": false,
        "postfix": false,
        "binop": null
      },
      "value": "postcode",
      "start": 259,
      "end": 267,
      "loc": {
        "start": {
          "line": 6,
          "column": 80
        },
        "end": {
          "line": 6,
          "column": 88
        }
      }
    },
    {
      "type": {
        "label": ",",
        "beforeExpr": true,
        "startsExpr": false,
        "rightAssociative": false,
        "isLoop": false,
        "isAssign": false,
        "prefix": false,
        "postfix": false,
        "binop": null,
        "updateContext": null
      },
      "start": 267,
      "end": 268,
      "loc": {
        "start": {
          "line": 6,
          "column": 88
        },
        "end": {
          "line": 6,
          "column": 89
        }
      }
    },
    {
      "type": {
        "label": "name",
        "beforeExpr": false,
        "startsExpr": true,
        "rightAssociative": false,
        "isLoop": false,
        "isAssign": false,
        "prefix": false,
        "postfix": false,
        "binop": null
      },
      "value": "$scope",
      "start": 268,
      "end": 274,
      "loc": {
        "start": {
          "line": 6,
          "column": 89
        },
        "end": {
          "line": 6,
          "column": 95
        }
      }
    },
    {
      "type": {
        "label": ".",
        "beforeExpr": false,
        "startsExpr": false,
        "rightAssociative": false,
        "isLoop": false,
        "isAssign": false,
        "prefix": false,
        "postfix": false,
        "binop": null,
        "updateContext": null
      },
      "start": 274,
      "end": 275,
      "loc": {
        "start": {
          "line": 6,
          "column": 95
        },
        "end": {
          "line": 6,
          "column": 96
        }
      }
    },
    {
      "type": {
        "label": "name",
        "beforeExpr": false,
        "startsExpr": true,
        "rightAssociative": false,
        "isLoop": false,
        "isAssign": false,
        "prefix": false,
        "postfix": false,
        "binop": null
      },
      "value": "contactpersoonNaam",
      "start": 275,
      "end": 293,
      "loc": {
        "start": {
          "line": 6,
          "column": 96
        },
        "end": {
          "line": 6,
          "column": 114
        }
      }
    },
    {
      "type": {
        "label": ",",
        "beforeExpr": true,
        "startsExpr": false,
        "rightAssociative": false,
        "isLoop": false,
        "isAssign": false,
        "prefix": false,
        "postfix": false,
        "binop": null,
        "updateContext": null
      },
      "start": 293,
      "end": 294,
      "loc": {
        "start": {
          "line": 6,
          "column": 114
        },
        "end": {
          "line": 6,
          "column": 115
        }
      }
    },
    {
      "type": {
        "label": "name",
        "beforeExpr": false,
        "startsExpr": true,
        "rightAssociative": false,
        "isLoop": false,
        "isAssign": false,
        "prefix": false,
        "postfix": false,
        "binop": null
      },
      "value": "$scope",
      "start": 294,
      "end": 300,
      "loc": {
        "start": {
          "line": 6,
          "column": 115
        },
        "end": {
          "line": 6,
          "column": 121
        }
      }
    },
    {
      "type": {
        "label": ".",
        "beforeExpr": false,
        "startsExpr": false,
        "rightAssociative": false,
        "isLoop": false,
        "isAssign": false,
        "prefix": false,
        "postfix": false,
        "binop": null,
        "updateContext": null
      },
      "start": 300,
      "end": 301,
      "loc": {
        "start": {
          "line": 6,
          "column": 121
        },
        "end": {
          "line": 6,
          "column": 122
        }
      }
    },
    {
      "type": {
        "label": "name",
        "beforeExpr": false,
        "startsExpr": true,
        "rightAssociative": false,
        "isLoop": false,
        "isAssign": false,
        "prefix": false,
        "postfix": false,
        "binop": null
      },
      "value": "contactpersoonTel",
      "start": 301,
      "end": 318,
      "loc": {
        "start": {
          "line": 6,
          "column": 122
        },
        "end": {
          "line": 6,
          "column": 139
        }
      }
    },
    {
      "type": {
        "label": ",",
        "beforeExpr": true,
        "startsExpr": false,
        "rightAssociative": false,
        "isLoop": false,
        "isAssign": false,
        "prefix": false,
        "postfix": false,
        "binop": null,
        "updateContext": null
      },
      "start": 318,
      "end": 319,
      "loc": {
        "start": {
          "line": 6,
          "column": 139
        },
        "end": {
          "line": 6,
          "column": 140
        }
      }
    },
    {
      "type": {
        "label": "name",
        "beforeExpr": false,
        "startsExpr": true,
        "rightAssociative": false,
        "isLoop": false,
        "isAssign": false,
        "prefix": false,
        "postfix": false,
        "binop": null
      },
      "value": "$scope",
      "start": 319,
      "end": 325,
      "loc": {
        "start": {
          "line": 6,
          "column": 140
        },
        "end": {
          "line": 6,
          "column": 146
        }
      }
    },
    {
      "type": {
        "label": ".",
        "beforeExpr": false,
        "startsExpr": false,
        "rightAssociative": false,
        "isLoop": false,
        "isAssign": false,
        "prefix": false,
        "postfix": false,
        "binop": null,
        "updateContext": null
      },
      "start": 325,
      "end": 326,
      "loc": {
        "start": {
          "line": 6,
          "column": 146
        },
        "end": {
          "line": 6,
          "column": 147
        }
      }
    },
    {
      "type": {
        "label": "name",
        "beforeExpr": false,
        "startsExpr": true,
        "rightAssociative": false,
        "isLoop": false,
        "isAssign": false,
        "prefix": false,
        "postfix": false,
        "binop": null
      },
      "value": "contactpersoonMail",
      "start": 326,
      "end": 344,
      "loc": {
        "start": {
          "line": 6,
          "column": 147
        },
        "end": {
          "line": 6,
          "column": 165
        }
      }
    },
    {
      "type": {
        "label": ")",
        "beforeExpr": false,
        "startsExpr": false,
        "rightAssociative": false,
        "isLoop": false,
        "isAssign": false,
        "prefix": false,
        "postfix": false,
        "binop": null
      },
      "start": 354,
      "end": 355,
      "loc": {
        "start": {
          "line": 7,
          "column": 8
        },
        "end": {
          "line": 7,
          "column": 9
        }
      }
    },
    {
      "type": {
        "label": ";",
        "beforeExpr": true,
        "startsExpr": false,
        "rightAssociative": false,
        "isLoop": false,
        "isAssign": false,
        "prefix": false,
        "postfix": false,
        "binop": null,
        "updateContext": null
      },
      "start": 355,
      "end": 356,
      "loc": {
        "start": {
          "line": 7,
          "column": 9
        },
        "end": {
          "line": 7,
          "column": 10
        }
      }
    },
    {
      "type": {
        "label": "}",
        "beforeExpr": false,
        "startsExpr": false,
        "rightAssociative": false,
        "isLoop": false,
        "isAssign": false,
        "prefix": false,
        "postfix": false,
        "binop": null
      },
      "start": 370,
      "end": 371,
      "loc": {
        "start": {
          "line": 8,
          "column": 4
        },
        "end": {
          "line": 8,
          "column": 5
        }
      }
    },
    {
      "type": {
        "label": ";",
        "beforeExpr": true,
        "startsExpr": false,
        "rightAssociative": false,
        "isLoop": false,
        "isAssign": false,
        "prefix": false,
        "postfix": false,
        "binop": null,
        "updateContext": null
      },
      "start": 371,
      "end": 372,
      "loc": {
        "start": {
          "line": 8,
          "column": 5
        },
        "end": {
          "line": 8,
          "column": 6
        }
      }
    },
    {
      "type": {
        "label": "}",
        "beforeExpr": false,
        "startsExpr": false,
        "rightAssociative": false,
        "isLoop": false,
        "isAssign": false,
        "prefix": false,
        "postfix": false,
        "binop": null
      },
      "start": 374,
      "end": 375,
      "loc": {
        "start": {
          "line": 9,
          "column": 0
        },
        "end": {
          "line": 9,
          "column": 1
        }
      }
    },
    {
      "type": {
        "label": ")",
        "beforeExpr": false,
        "startsExpr": false,
        "rightAssociative": false,
        "isLoop": false,
        "isAssign": false,
        "prefix": false,
        "postfix": false,
        "binop": null
      },
      "start": 375,
      "end": 376,
      "loc": {
        "start": {
          "line": 9,
          "column": 1
        },
        "end": {
          "line": 9,
          "column": 2
        }
      }
    },
    {
      "type": {
        "label": ";",
        "beforeExpr": true,
        "startsExpr": false,
        "rightAssociative": false,
        "isLoop": false,
        "isAssign": false,
        "prefix": false,
        "postfix": false,
        "binop": null,
        "updateContext": null
      },
      "start": 376,
      "end": 377,
      "loc": {
        "start": {
          "line": 9,
          "column": 2
        },
        "end": {
          "line": 9,
          "column": 3
        }
      }
    },
    {
      "type": {
        "label": "eof",
        "beforeExpr": false,
        "startsExpr": false,
        "rightAssociative": false,
        "isLoop": false,
        "isAssign": false,
        "prefix": false,
        "postfix": false,
        "binop": null,
        "updateContext": null
      },
      "start": 379,
      "end": 379,
      "loc": {
        "start": {
          "line": 10,
          "column": 0
        },
        "end": {
          "line": 10,
          "column": 0
        }
      }
    }
  ]
}